{
  "home": {
    "title": "This App is Good",
    "content": "This is an app built with React, Redux, React Router, and React Bootstrap"
  },
  "widgets": [
    {
      "id": 2,
      "name": "Widget Two"
    },
    {
      "id": 4,
      "name": "Widget Four"
    }
  ]
}