{
  "home": {
      "title": "This App is Good",
      "content": "This is an app built with React, Redux, React Router, and React Bootstrap"
    },
  "widgets": [
    {
      "id": 1,
      "name": "Widget One"
    },
    {
      "id": 2,
      "name": "Widget Two"
    },
    {
      "id": 3,
      "name": "Widget Three"
    },
    {
      "id": 4,
      "name": "Widget Four"
    }
  ]
}
